id,label,definition,description,parent_id,i18n
H,Hydrogène (H),,,,"{""label_de"": ""Wasserstoff (H)""}"
He,Hélium (He),,,,"{""label_de"": ""Helium (He)""}"
Li,Lithium (Li),,,,"{""label_de"": ""Lithium (Li)""}"
Be,Béryllium (Be),,,,"{""label_de"": ""Beryllium (Be)""}"
B,Bore (B),,,,"{""label_de"": ""Bor (B)""}"
C,Carbone (C),,,,"{""label_de"": ""Kohlenstoff (C)""}"
N,Azote (N),,,,"{""label_de"": ""Stickstoff (N)""}"
O,Oxygène (O),,,,"{""label_de"": ""Sauerstoff (O)""}"
F,Fluor (F),,,,"{""label_de"": ""Fluor (F)""}"
Ne,Néon (Ne),,,,"{""label_de"": ""Neon (Ne)""}"
Na,Sodium (Na),,,,"{""label_de"": ""Natrium (Na)""}"
Mg,Magnésium (Mg),,,,"{""label_de"": ""Magnesium (Mg)""}"
Al,Aluminium (Al),,,,"{""label_de"": ""Aluminium (Al)""}"
Si,Silicium (Si),,,,"{""label_de"": ""Silizium (Si)""}"
P,Phosphore (P),,,,"{""label_de"": ""Phosphor (P)""}"
S,Soufre (S),,,,"{""label_de"": ""Schwefel (S)""}"
Cl,Chlore (Cl),,,,"{""label_de"": ""Chlor (Cl)""}"
Ar,Argon (Ar),,,,"{""label_de"": ""Argon (Ar)""}"
K,Potassium (K),,,,"{""label_de"": ""Kalium (K)""}"
Ca,Calcium (Ca),,,,"{""label_de"": ""Kalzium (Ca)""}"
Sc,Scandium (Sc),,,,"{""label_de"": ""Scandium (Sc)""}"
Ti,Titane (Ti),,,,"{""label_de"": ""Titan (Ti)""}"
V,Vanadium (V),,,,"{""label_de"": ""Vanadium (V)""}"
Cr,Chrome (Cr),,,,"{""label_de"": ""Chrom (Cr)""}"
Mn,Manganèse (Mn),,,,"{""label_de"": ""Mangan (Mn)""}"
Fe,Fer (Fe),,,,"{""label_de"": ""Eisen (Fe)""}"
Co,Cobalt (Co),,,,"{""label_de"": ""Kobalt (Co)""}"
Ni,Nickel (Ni),,,,"{""label_de"": ""Nickel (Ni)""}"
Cu,Cuivre (Cu),,,,"{""label_de"": ""Kupfer (Cu)""}"
Zn,Zinc (Zn),,,,"{""label_de"": ""Zink (Zn)""}"
Ga,Gallium (Ga),,,,"{""label_de"": ""Gallium (Ga)""}"
Ge,Germanium (Ge),,,,"{""label_de"": ""Germanium (Ge)""}"
As,Arsenic (As),,,,"{""label_de"": ""Arsen (As)""}"
Se,Sélénium (Se),,,,"{""label_de"": ""Selen (Se)""}"
Br,Brome (Br),,,,"{""label_de"": ""Brom (Br)""}"
Kr,Krypton (Kr),,,,"{""label_de"": ""Krypton (Kr)""}"
Rb,Rubidium (Rb),,,,"{""label_de"": ""Rubidium (Rb)""}"
Sr,Strontium (Sr),,,,"{""label_de"": ""Strontium (Sr)""}"
Y,Yttrium (Y),,,,"{""label_de"": ""Yttrium (Y)""}"
Zr,Zirconium (Zr),,,,"{""label_de"": ""Zirkonium (Zr)""}"
Nb,Niobium (Nb),,,,"{""label_de"": ""Niobium (Nb)""}"
Mo,Molybdène (Mo),,,,"{""label_de"": ""Molybdän (Mo)""}"
Tc,Technétium (Tc),,,,"{""label_de"": ""Technetium (Tc)""}"
Ru,Ruthénium (Ru),,,,"{""label_de"": ""Ruthenium (Ru)""}"
Rh,Rhodium (Rh),,,,"{""label_de"": ""Rhodium (Rh)""}"
Pd,Palladium (Pd),,,,"{""label_de"": ""Palladium (Pd)""}"
Ag,Argent (Ag),,,,"{""label_de"": ""Silber (Ag)""}"
Cd,Cadmium (Cd),,,,"{""label_de"": ""Kadmium (Cd)""}"
In,Indium (In),,,,"{""label_de"": ""Indium (In)""}"
Sn,Étain (Sn),,,,"{""label_de"": ""Zinn (Sn)""}"
Sb,Antimoine (Sb),,,,"{""label_de"": ""Antimon (Sb)""}"
Te,Tellure (Te),,,,"{""label_de"": ""Tellur (Te)""}"
I,Iode (I),,,,"{""label_de"": ""Jod (I)""}"
Xe,Xénon (Xe),,,,"{""label_de"": ""Xenon (Xe)""}"
Cs,Césium (Cs),,,,"{""label_de"": ""Cäsium (Cs)""}"
Ba,Baryum (Ba),,,,"{""label_de"": ""Barium (Ba)""}"
La,Lanthane (La),,,,"{""label_de"": ""Lanthan (La)""}"
Ce,Cérium (Ce),,,,"{""label_de"": ""Cer (Ce)""}"
Pr,Praséodyme (Pr),,,,"{""label_de"": ""Praseodym (Pr)""}"
Nd,Néodyme (Nd),,,,"{""label_de"": ""Neodym (Nd)""}"
Pm,Prométhium (Pm),,,,"{""label_de"": ""Promethium (Pm)""}"
Sm,Samarium (Sm),,,,"{""label_de"": ""Samarium (Sm)""}"
Eu,Europium (Eu),,,,"{""label_de"": ""Europium (Eu)""}"
Gd,Gadolinium (Gd),,,,"{""label_de"": ""Gadolinium (Gd)""}"
Tb,Terbium (Tb),,,,"{""label_de"": ""Terbium (Tb)""}"
Dy,Dysprosium (Dy),,,,"{""label_de"": ""Dysprosium (Dy)""}"
Ho,Holmium (Ho),,,,"{""label_de"": ""Holmium (Ho)""}"
Er,Erbium (Er),,,,"{""label_de"": ""Erbium (Er)""}"
Tm,Thulium (Tm),,,,"{""label_de"": ""Thulium (Tm)""}"
Yb,Ytterbium (Yb),,,,"{""label_de"": ""Ytterbium (Yb)""}"
Lu,Lutécium (Lu),,,,"{""label_de"": ""Lutetium (Lu)""}"
Hf,Hafnium (Hf),,,,"{""label_de"": ""Hafnium (Hf)""}"
Ta,Tantale (Ta),,,,"{""label_de"": ""Tantal (Ta)""}"
W,Tungstène (W),,,,"{""label_de"": ""Wolfram (W)""}"
Re,Rhénium (Re),,,,"{""label_de"": ""Rhenium (Re)""}"
Os,Osmium (Os),,,,"{""label_de"": ""Osmium (Os)""}"
Ir,Iridium (Ir),,,,"{""label_de"": ""Iridium (Ir)""}"
Pt,Platine (Pt),,,,"{""label_de"": ""Platin (Pt)""}"
Au,Or (Au),,,,"{""label_de"": ""Gold (Au)""}"
Hg,Mercure (Hg),,,,"{""label_de"": ""Quecksilber (Hg)""}"
Tl,Thallium (Tl),,,,"{""label_de"": ""Thallium (Tl)""}"
Pb,Plomb (Pb),,,,"{""label_de"": ""Blei (Pb)""}"
Bi,Bismuth (Bi),,,,"{""label_de"": ""Wismut (Bi)""}"
Po,Polonium (Po),,,,"{""label_de"": ""Polonium (Po)""}"
At,Astate (At),,,,"{""label_de"": ""Astat (At)""}"
Rn,Radon (Rn),,,,"{""label_de"": ""Radon (Rn)""}"
Fr,Francium (Fr),,,,"{""label_de"": ""Francium (Fr)""}"
Ra,Radium (Ra),,,,"{""label_de"": ""Radium (Ra)""}"
Ac,Actinium (Ac),,,,"{""label_de"": ""Actinium (Ac)""}"
Th,Thorium (Th),,,,"{""label_de"": ""Thorium (Th)""}"
Pa,Protactinium (Pa),,,,"{""label_de"": ""Protactinium (Pa)""}"
U,Uranium (U),,,,"{""label_de"": ""Uranium (U)""}"
Np,Neptunium (Np),,,,"{""label_de"": ""Neptunium (Np)""}"
Pu,Plutonium (Pu),,,,"{""label_de"": ""Plutonium (Pu)""}"
Am,Américium (Am),,,,"{""label_de"": ""Americium (Am)""}"
Cm,Curium (Cm),,,,"{""label_de"": ""Curium (Cm)""}"
Bk,Berkélium (Bk),,,,"{""label_de"": ""Berkelium (Bk)""}"
Cf,Californium (Cf),,,,"{""label_de"": ""Californium (Cf)""}"
Es,Einsteinium (Es),,,,"{""label_de"": ""Einsteinium (Es)""}"
Fm,Fermium (Fm),,,,"{""label_de"": ""Fermium (Fm)""}"
Md,Mendélévium (Md),,,,"{""label_de"": ""Mendelevium (Md)""}"
No,Nobélium (No),,,,"{""label_de"": ""Nobelium (No)""}"
Lr,Lawrencium (Lr),,,,"{""label_de"": ""Lawrencium (Lr)""}"
Rf,Rutherfordium (Rf),,,,"{""label_de"": ""Rutherfordium (Rf)""}"
Db,Dubnium (Db),,,,"{""label_de"": ""Dubnium (Db)""}"
Sg,Seaborgium (Sg),,,,"{""label_de"": ""Seaborgium (Sg)""}"
Bh,Bohrium (Bh),,,,"{""label_de"": ""Bohrium (Bh)""}"
Hs,Hassium (Hs),,,,"{""label_de"": ""Hassium (Hs)""}"
Mt,Meitnérium (Mt),,,,"{""label_de"": ""Meitnerium (Mt)""}"
Ds,Darmstadtium (Ds),,,,"{""label_de"": ""Darmstadtium (Ds)""}"
Rg,Roentgenium (Rg),,,,"{""label_de"": ""Roentgenium (Rg)""}"
Cn,Copernicium (Cn),,,,"{""label_de"": ""Kopernicium (Cn)""}"
Nh,Nihonium (Nh),,,,"{""label_de"": ""Nihonium (Nh)""}"
Fl,Flérovium (Fl),,,,"{""label_de"": ""Flerovium (Fl)""}"
Mc,Moscovium (Mc),,,,"{""label_de"": ""Moscovium (Mc)""}"
Lv,Livermorium (Lv),,,,"{""label_de"": ""Livermorium (Lv)""}"
Ts,Tennessine (Ts),,,,"{""label_de"": ""Tennessin (Ts)""}"
Og,Oganesson (Og),,,,"{""label_de"": ""Oganesson (Og)""}"