{
  "data": {
    "nitrogen_limitation": {
      "nitrogen_limits": [
        {
          "id": "53c0cd5648a5284f82bbd288d9557be7da69daf2",
          "value": 170.0,
          "unit": "kg N/ha/an",
          "comment": "En zone vulnérable, la quantité moyenne d'azote organique apportée par hectare de l'ensemble de l'exploitation (cultures et prairies) ne peut dépasser 170 kg/ha."
        }
      ],
      "warnings": [
        {
          "id": "d5d2a6023dd34f7ce9508fd7ca0cc1e8f5354b91",
          "title": null,
          "content": "Moins de 6 mètres de tout point d'eau: Interdit",
          "url": "https://protecteau.be/fr/nitrate/agriculteurs/epandage#conditions"
        },
        {
          "id": "6b92b6d570a671d5270d690fe0e0a46404361743",
          "title": null,
          "content": "Sol inondé ou recouvert de neige: Interdit",
          "url": "https://protecteau.be/fr/nitrate/agriculteurs/epandage#conditions"
        },
        {
          "id": "3324d0d3ba0f434405e304513cc90dedd3d8538f",
          "title": null,
          "content": "Avant, pendant, ou après une légumineuse (sauf si conseil ferti): Interdit",
          "url": "https://protecteau.be/fr/nitrate/agriculteurs/epandage#conditions"
        },
        {
          "id": "64d43034fa0177645730644921bdc0c745e0ed31",
          "title": null,
          "content": "Sol gelé: Interdit",
          "url": "https://protecteau.be/fr/nitrate/agriculteurs/epandage#conditions"
        },
        {
          "id": "37249d0149e2a304d286b45126cddc828fc63ca3",
          "title": null,
          "content": "Sol gelé en zone vulnérable: Interdit",
          "url": "https://protecteau.be/fr/nitrate/agriculteurs/epandage#conditions"
        },
        {
          "id": "e5410efee8a7295f2795cfc12b29f45d72476ff2",
          "title": null,
          "content": "Sol nu: Interdit sauf si incorporation le jour même",
          "url": "https://protecteau.be/fr/nitrate/agriculteurs/epandage#conditions"
        },
        {
          "id": "fc80857b05eed65c57b7f94bd8e6ad1b68bcb8bd",
          "title": null,
          "content": "Culture avec pente de plus de 15%: Interdit sur la partie réellement en pente",
          "url": "https://protecteau.be/fr/nitrate/agriculteurs/epandage#conditions"
        }
      ],
      "params": null,
      "missing_base_params": null
    }
  }
}