{
  "data": {
    "nitrogen_limitation": {
      "nitrogen_limits": [
        {
          "id": "53c0cd5648a5284f82bbd288d9557be7da69daf2",
          "value": 170.0,
          "unit": "kg N/ha/an",
          "comment": "En zone vulnérable, la quantité moyenne d'azote organique apportée par hectare de l'ensemble de l'exploitation (cultures et prairies) ne peut dépasser 170 kg/ha."
        }
      ],
      "warnings": [
        {
          "id": "c5227039f87429ab4a4d4d05d404e56ddfb1886e",
          "title": null,
          "content": "Moins de 6 mètres de tout point d'eau: Interdit",
          "url": "https://protecteau.be/fr/nitrate/agriculteurs/epandage#conditions"
        },
        {
          "id": "8f4de4767abd53623efc4182e98a50ec03d588c3",
          "title": null,
          "content": "Sol inondé ou recouvert de neige: Interdit",
          "url": "https://protecteau.be/fr/nitrate/agriculteurs/epandage#conditions"
        },
        {
          "id": "c5f4c152045424bac12495cc6cfd32986e4feab3",
          "title": null,
          "content": "Avant, pendant, ou après une légumineuse (sauf si conseil ferti): Interdit",
          "url": "https://protecteau.be/fr/nitrate/agriculteurs/epandage#conditions"
        },
        {
          "id": "049994611c0fb9f969b1de9d737470e27b30592e",
          "title": null,
          "content": "Sol gelé: Autorisé",
          "url": "https://protecteau.be/fr/nitrate/agriculteurs/epandage#conditions"
        },
        {
          "id": "6b573395368d9e35eb7a0975088c894d459cb5de",
          "title": null,
          "content": "Sol gelé en zone vulnérable: Interdit",
          "url": "https://protecteau.be/fr/nitrate/agriculteurs/epandage#conditions"
        },
        {
          "id": "8d564a8941c07b57cac5115fcbd34cdb75d606e0",
          "title": null,
          "content": "Sol nu: Autorisé",
          "url": "https://protecteau.be/fr/nitrate/agriculteurs/epandage#conditions"
        },
        {
          "id": "462e78c07f330b41f40f2c9489b6aca44ad11c42",
          "title": null,
          "content": "Culture avec pente de plus de 15%: Autorisé",
          "url": "https://protecteau.be/fr/nitrate/agriculteurs/epandage#conditions"
        },
        {
          "id": "06ac49e1ce51e7b5bdba1a084587ee9646a90456",
          "title": null,
          "content": "Épandage autorisé entre le 15 novembre et le 30 juin.",
          "url": "https://protecteau.be/fr/nitrate/agriculteurs/epandage#periodes"
        },
        {
          "id": "bf2d40466b1d626a6b55786ad3dc8bc089c44f80",
          "title": null,
          "content": "Épandage autorisé si implantation d'une culture d'hiver ou d'une culture à piège à nitrate ou si apport, sur pailles enfouies, de maximum 80 kg d'azote organique/ha entre le 1er juillet et le 30 septembre.",
          "url": "https://protecteau.be/fr/nitrate/agriculteurs/epandage#periodes"
        },
        {
          "id": "7a0bc283a485ef8321aad20c133d3198d62a65fa",
          "title": null,
          "content": "Épandage interdit entre le 1er octobre et le 14 novembre.",
          "url": "https://protecteau.be/fr/nitrate/agriculteurs/epandage#periodes"
        }
      ],
      "params": [
        {
          "id": "FERTILIZER_PARAM",
          "label": "Type de fertilisant utilisé",
          "choices": [
            {
              "id": "FERTILISANT_MINERAL",
              "label": "Azote minéral"
            },
            {
              "id": "FERTILISANT_ORGANIQUE_LIQUIDE",
              "label": "Fumier mou, lisier, purin, fientes et fumier de volailles"
            },
            {
              "id": "FERTILISANT_ORGANIQUE_SOLIDE",
              "label": "Fumier et compost"
            }
          ],
          "value": "FERTILISANT_ORGANIQUE_SOLIDE"
        }
      ],
      "missing_base_params": []
    }
  }
}